20

110 141
14
h 14 110 n
t 66 111 w
r 109 11 n
r 81 98 n
f 78 13 n
r 39 25 s
r 102 76 s
f 70 3 s
f 97 63 n
t 31 112 n
t 31 18 w
f 106 51 s
f 36 129 s
r 61 47 n
1354 36

122 171
4
r 12 44 w
t 104 100 n
f 97 47 n
t 33 156 w
1077 36

90 45
13
h 77 11 e
h 80 33 w
f 15 22 n
h 22 43 w
f 60 22 w
f 0 7 n
f 1 36 e
r 55 6 s
t 25 26 n
h 10 14 s
r 25 26 e
f 44 44 n
t 46 27 e
168 25

190 114
12
f 104 95 s
t 40 61 n
f 113 55 s
h 106 68 s
h 125 11 n
r 90 102 w
t 148 28 s
r 47 93 e
r 7 19 e
t 136 0 s
f 160 41 s
f 156 74 e
1932 187

119 117
11
h 70 29 s
f 74 41 e
t 104 11 s
f 92 54 w
r 56 12 n
f 99 91 e
t 106 19 s
h 49 52 n
h 50 48 n
r 48 80 s
r 32 43 n
22 20

43 19
7
t 30 3 s
h 26 0 w
t 35 4 n
t 27 7 s
f 20 10 n
r 13 15 e
t 25 13 n
654 164

101 23
1
f 22 22 w
1071 144

22 9
4
f 20 2 s
r 18 8 s
t 4 1 s
r 2 6 s
1716 188

42 156
7
t 4 154 w
r 28 9 s
f 40 99 w
t 35 133 e
t 33 141 e
h 35 30 s
r 31 120 s
1938 40

53 66
3
f 29 59 n
r 3 29 n
h 5 4 e
1092 96

72 81
2
h 13 15 w
h 20 80 e
523 5

130 194
1
h 73 59 w
21 59

39 150
7
h 37 66 e
r 9 40 e
r 9 8 w
f 24 120 w
r 6 29 n
r 34 119 s
f 21 117 n
103 59

176 194
4
r 75 122 w
f 166 131 e
t 13 66 w
t 15 34 e
63 104

188 179
5
h 43 51 s
r 74 125 s
t 123 113 w
t 104 43 s
f 66 108 w
175 175

134 7
3
f 39 6 w
r 17 2 w
r 77 6 s
181 108

92 10
1
h 76 6 n
1 133

146 180
4
f 23 75 w
t 115 173 n
t 78 165 s
f 107 112 e
86 18

132 63
21
t 89 21 n
h 79 45 n
r 79 38 w
h 3 25 e
h 111 20 e
t 27 29 w
t 68 45 n
r 34 34 e
t 124 32 s
t 41 9 w
r 22 44 s
r 51 51 n
h 1 0 w
f 131 17 n
f 67 19 s
h 35 14 e
r 80 49 e
f 55 4 s
h 122 2 e
t 108 40 s
t 73 44 w
173 38

134 70
7
h 12 30 n
t 41 52 w
f 92 64 e
h 85 55 s
f 0 65 s
f 21 62 s
r 16 33 n
58 6
