21

5 9
9
h 2 6 s
r 1 6 s
h 2 3 e
r 3 4 w
f 0 1 w
h 1 4 w
t 1 2 e
h 2 1 e
t 0 7 n
3 12

12 13
16
h 3 1 s
f 5 6 s
r 10 11 e
t 0 2 s
h 9 9 w
r 10 1 s
f 7 3 w
h 4 1 e
f 1 11 n
f 10 6 w
t 6 0 s
f 5 11 s
f 7 4 n
f 1 2 s
r 5 3 n
t 8 5 w
5 1

11 12
9
r 2 6 n
t 10 11 w
f 0 10 w
h 4 10 n
r 8 3 s
h 8 0 e
t 7 6 n
f 6 7 e
r 10 4 w
2 12

3 4
8
t 1 1 e
f 0 3 e
f 2 3 e
r 1 1 n
h 0 0 w
t 1 2 w
h 0 2 w
h 1 1 w
5 13

5 8
19
h 1 5 e
f 4 2 s
h 4 6 n
h 2 1 e
t 1 0 w
r 4 3 e
r 3 1 w
r 1 5 s
h 0 3 s
f 4 1 e
f 1 7 s
h 1 6 s
r 3 0 s
t 2 4 w
h 1 7 e
r 1 1 w
h 2 7 s
t 0 6 s
t 1 6 s
7 5

8 8
17
t 6 1 s
f 1 6 n
r 0 1 e
h 0 7 w
h 5 4 s
h 2 6 s
r 4 5 s
r 5 2 w
r 4 0 e
h 7 2 w
r 0 5 w
r 2 7 e
t 2 6 e
f 6 7 e
h 6 4 n
t 4 5 s
t 6 3 s
7 1

11 19
14
r 2 8 w
f 5 11 n
t 9 12 e
t 7 16 s
r 8 7 n
t 3 4 s
r 2 5 w
f 8 18 n
h 1 3 e
h 7 9 n
h 7 16 e
r 6 18 s
t 8 2 e
t 2 6 e
18 3

16 3
13
r 10 1 w
r 6 1 w
t 12 0 n
t 1 1 n
t 8 1 n
h 10 1 n
h 0 2 n
h 7 1 s
f 8 2 n
f 15 0 s
t 2 0 e
r 10 2 s
t 3 1 n
18 15

3 9
9
h 1 6 w
r 2 7 e
t 1 1 s
r 1 8 s
t 1 1 w
f 2 0 w
h 2 7 n
r 0 6 e
f 2 5 n
3 7

9 6
18
f 1 3 e
h 8 5 e
f 7 0 e
r 3 2 e
t 3 4 s
r 3 3 w
t 1 5 s
t 0 1 n
f 6 0 w
h 7 5 w
t 5 2 e
f 4 1 s
t 6 0 s
h 3 1 n
f 1 5 n
h 1 2 e
h 6 3 n
t 0 0 s
4 6

12 2
11
f 10 1 e
h 0 1 s
t 9 1 n
h 7 1 s
f 7 0 n
h 5 0 s
t 5 1 w
h 3 0 n
t 5 0 w
t 5 0 s
r 5 1 s
18 19

16 10
4
r 14 7 n
h 1 9 e
h 14 1 n
t 14 0 w
15 10

19 6
13
f 8 2 n
f 3 2 w
h 1 3 e
h 10 1 n
f 9 3 e
f 7 0 n
t 8 4 w
t 12 3 n
f 14 4 w
f 10 2 w
h 14 4 s
h 0 5 e
r 13 2 e
14 18

8 17
7
f 5 12 w
h 7 11 w
r 1 9 s
r 3 6 n
t 3 0 e
f 0 15 n
f 5 7 n
14 13

4 19
18
h 3 15 s
h 2 10 e
h 3 12 e
r 1 5 s
f 1 13 s
h 1 1 s
r 1 1 s
f 2 17 w
h 1 12 s
h 2 18 e
h 1 4 s
h 1 18 e
f 0 14 n
t 1 7 w
h 2 3 w
h 3 7 s
t 0 16 e
t 3 12 s
2 9

12 9
10
f 9 2 w
f 7 3 s
r 6 0 s
r 2 8 s
h 4 4 n
t 4 6 s
r 2 8 n
t 5 6 n
t 11 2 e
f 9 0 w
11 10

15 18
5
h 5 0 e
r 14 10 n
h 2 6 n
h 11 16 s
h 10 11 w
18 3

1 6
5
h 0 4 e
f 0 4 w
h 0 2 e
r 0 5 w
h 0 3 n
17 16

17 12
1
r 5 11 n
2 11

9 11
4
f 0 5 e
h 8 9 e
t 1 4 w
t 8 2 n
9 6

7 15
4
f 4 14 n
h 4 10 e
h 1 3 e
r 3 5 n
17 1
